{
	"info": {
		"_postman_id": "69cc3e08-ed41-4ee9-a049-08c5985f4e08",
		"name": "New Collection",
		"schema": "https://schema.getpostman.com/json/collection/v2.1.0/collection.json",
		"_exporter_id": "34569790"
	},
	"item": [
		{
			"name": "Positive Scenario",
			"item": [
				{
					"name": "Create a new User",
					"event": [
						{
							"listen": "test",
							"script": {
								"exec": [
									"pm.test(\"Content-Type is present\", function () {",
									"    pm.response.to.have.header(\"Content-Type\");",
									"});",
									"",
									"pm.test(\"Successful POST request\", function () {",
									"    pm.expect(pm.response.code).to.be.oneOf([201, 202]);",
									"});",
									"",
									"pm.test(\"Status code is 201\",function() {",
									"    pm.response.to.have.status(201);",
									"});",
									"let res= pm.response.json();",
									"",
									"pm.test(\"veryfing id after creating the new user\", function()",
									"{",
									"    pm.expect(parseInt(res.id)).to.greaterThan(1);",
									"});",
									"pm.test(\"Status code name has string\", () => {",
									"  pm.response.to.have.status(\"Created\");",
									"});",
									"",
									"",
									""
								],
								"type": "text/javascript"
							}
						}
					],
					"request": {
						"method": "POST",
						"header": [],
						"body": {
							"mode": "raw",
							"raw": "{\n    \"name\": \"morpheus\",\n    \"job\": \"leader\"\n}",
							"options": {
								"raw": {
									"language": "json"
								}
							}
						},
						"url": {
							"raw": "https://reqres.in/api/users",
							"protocol": "https",
							"host": [
								"reqres",
								"in"
							],
							"path": [
								"api",
								"users"
							]
						}
					},
					"response": []
				},
				{
					"name": "Get All User Paged",
					"event": [
						{
							"listen": "prerequest",
							"script": {
								"exec": [
									""
								],
								"type": "text/javascript"
							}
						},
						{
							"listen": "test",
							"script": {
								"exec": [
									"pm.test(\"Content-Type is present\", function () {",
									"    pm.response.to.have.header(\"Content-Type\");",
									"});",
									"",
									"pm.test(\"Status code is 200\", function () {",
									"    pm.response.to.have.status(200);",
									"});",
									"",
									"pm.test(\"Body contains email\", function () {",
									"  pm.expect(pm.response.text()).to.include(\"george.edwards@reqres.in\");",
									"});",
									"pm.test(\"Valid JSON response structure\", function () {",
									"  responseBody = pm.response.json();",
									"",
									"  pm.expect(responseBody).to.have.property(\"page\");",
									"  pm.expect(responseBody).to.have.property(\"per_page\");",
									"  pm.expect(responseBody).to.have.property(\"total\");",
									"  pm.expect(responseBody).to.have.property(\"total_pages\");",
									"  pm.expect(responseBody).to.have.property(\"data\");",
									"  pm.expect(responseBody).to.have.property(\"support\");",
									"  pm.expect(responseBody.support).to.have.property(\"url\");",
									"  pm.expect(responseBody.support).to.have.property(\"text\");",
									"});"
								],
								"type": "text/javascript"
							}
						}
					],
					"protocolProfileBehavior": {
						"disableBodyPruning": true
					},
					"request": {
						"method": "GET",
						"header": [],
						"body": {
							"mode": "raw",
							"raw": "{\n    \"page\": 2,\n    \"per_page\": 6,\n    \"total\": 12,\n    \"total_pages\": 2,\n    \"data\": [\n        {\n            \"id\": 7,\n            \"email\": \"michael.lawson@reqres.in\",\n            \"first_name\": \"Michael\",\n            \"last_name\": \"Lawson\",\n            \"avatar\": \"https://reqres.in/img/faces/7-image.jpg\"\n        },\n        {\n            \"id\": 8,\n            \"email\": \"lindsay.ferguson@reqres.in\",\n            \"first_name\": \"Lindsay\",\n            \"last_name\": \"Ferguson\",\n            \"avatar\": \"https://reqres.in/img/faces/8-image.jpg\"\n        },\n        {\n            \"id\": 9,\n            \"email\": \"tobias.funke@reqres.in\",\n            \"first_name\": \"Tobias\",\n            \"last_name\": \"Funke\",\n            \"avatar\": \"https://reqres.in/img/faces/9-image.jpg\"\n        },\n        {\n            \"id\": 10,\n            \"email\": \"byron.fields@reqres.in\",\n            \"first_name\": \"Byron\",\n            \"last_name\": \"Fields\",\n            \"avatar\": \"https://reqres.in/img/faces/10-image.jpg\"\n        },\n        {\n            \"id\": 11,\n            \"email\": \"george.edwards@reqres.in\",\n            \"first_name\": \"George\",\n            \"last_name\": \"Edwards\",\n            \"avatar\": \"https://reqres.in/img/faces/11-image.jpg\"\n        },\n        {\n            \"id\": 12,\n            \"email\": \"rachel.howell@reqres.in\",\n            \"first_name\": \"Rachel\",\n            \"last_name\": \"Howell\",\n            \"avatar\": \"https://reqres.in/img/faces/12-image.jpg\"\n        }\n    ]",
							"options": {
								"raw": {
									"language": "json"
								}
							}
						},
						"url": {
							"raw": "https://reqres.in/api/users?page=2",
							"protocol": "https",
							"host": [
								"reqres",
								"in"
							],
							"path": [
								"api",
								"users"
							],
							"query": [
								{
									"key": "page",
									"value": "2"
								}
							]
						}
					},
					"response": []
				},
				{
					"name": "Update User",
					"event": [
						{
							"listen": "test",
							"script": {
								"exec": [
									"pm.test(\"Content-Type is present\", function () {",
									"    pm.response.to.have.header(\"Content-Type\");",
									"});",
									"",
									"pm.test(\"Status code is 200\",function() {",
									"    pm.response.to.have.status(200);",
									"});",
									"pm.test(\"Valid JSON response structure\", function () {",
									"  responseBody = pm.response.json();",
									"",
									"  pm.expect(responseBody).to.have.property(\"name\");",
									"  pm.expect(responseBody).to.have.property(\"job\");",
									"  pm.expect(responseBody).to.have.property(\"updatedAt\");",
									"});",
									"",
									"pm.test(\"Content-Type is present\", function () {",
									"    pm.response.to.have.header(\"Content-Type\");",
									"});",
									"pm.test(\"Status code name has string\", () => {",
									"  pm.response.to.have.status(\"OK\");",
									"});",
									"",
									""
								],
								"type": "text/javascript"
							}
						}
					],
					"request": {
						"method": "PUT",
						"header": [],
						"body": {
							"mode": "raw",
							"raw": "{\n    \"name\": \"morpheus\",\n    \"job\": \"senior leader\"\n}",
							"options": {
								"raw": {
									"language": "json"
								}
							}
						},
						"url": {
							"raw": "https://reqres.in/api/users/2",
							"protocol": "https",
							"host": [
								"reqres",
								"in"
							],
							"path": [
								"api",
								"users",
								"2"
							]
						}
					},
					"response": []
				},
				{
					"name": "View Detail Single User",
					"event": [
						{
							"listen": "test",
							"script": {
								"exec": [
									"pm.test(\"Content-Type is present\", function () {",
									"    pm.response.to.have.header(\"Content-Type\");",
									"});",
									"",
									"pm.test(\"Status code is 200\",function() {",
									"    pm.response.to.have.status(200);",
									"});",
									" ",
									"pm.test(\"Valid JSON response structure\", function () {",
									"  responseBody = pm.response.json();",
									"",
									"  pm.expect(responseBody).to.have.property(\"data\");",
									"  pm.expect(responseBody).to.have.property(\"support\");",
									"});",
									"pm.test(\"Body contains string\",() => {",
									"  pm.expect(pm.response.text()).to.include(\"id\");",
									"});",
									""
								],
								"type": "text/javascript"
							}
						}
					],
					"protocolProfileBehavior": {
						"disableBodyPruning": true
					},
					"request": {
						"method": "GET",
						"header": [],
						"body": {
							"mode": "raw",
							"raw": "{\n    \"data\": {\n        \"id\": 2,\n        \"email\": \"janet.weaver@reqres.in\",\n        \"first_name\": \"Janet\",\n        \"last_name\": \"Weaver\",\n        \"avatar\": \"https://reqres.in/img/faces/2-image.jpg\"\n    },\n    \"support\": {\n        \"url\": \"https://reqres.in/#support-heading\",\n        \"text\": \"To keep ReqRes free, contributions towards server costs are appreciated!\"\n    }\n}",
							"options": {
								"raw": {
									"language": "json"
								}
							}
						},
						"url": {
							"raw": "https://reqres.in/api/users/2",
							"protocol": "https",
							"host": [
								"reqres",
								"in"
							],
							"path": [
								"api",
								"users",
								"2"
							]
						}
					},
					"response": []
				},
				{
					"name": "Delete User",
					"event": [
						{
							"listen": "test",
							"script": {
								"exec": [
									"pm.test(\"Status code is 204(Delete User)\",function() {",
									"    pm.response.to.have.status(204);",
									"});"
								],
								"type": "text/javascript"
							}
						}
					],
					"request": {
						"method": "DELETE",
						"header": [],
						"url": {
							"raw": "https://reqres.in/api/users/2",
							"protocol": "https",
							"host": [
								"reqres",
								"in"
							],
							"path": [
								"api",
								"users",
								"2"
							]
						}
					},
					"response": []
				}
			]
		},
		{
			"name": "Negative Scenario",
			"item": [
				{
					"name": "Invalid Input Create New User",
					"event": [
						{
							"listen": "test",
							"script": {
								"exec": [
									"pm.test(\"Status code is 400(Bad request)\",function() {",
									"    pm.response.to.have.status(400);",
									"});",
									"pm.test(\"Content-Type is present\", function () {",
									"    pm.response.to.have.header(\"Content-Type\");",
									"});",
									""
								],
								"type": "text/javascript"
							}
						}
					],
					"request": {
						"method": "POST",
						"header": [],
						"body": {
							"mode": "raw",
							"raw": "\n{\n    \"\": \"leader\n}\n",
							"options": {
								"raw": {
									"language": "json"
								}
							}
						},
						"url": {
							"raw": "https://reqres.in/api/users",
							"protocol": "https",
							"host": [
								"reqres",
								"in"
							],
							"path": [
								"api",
								"users"
							]
						}
					},
					"response": []
				},
				{
					"name": "Invalid Get All User Paged",
					"event": [
						{
							"listen": "test",
							"script": {
								"exec": [
									"pm.test(\"Status code is 400(Bad request)\",function() {",
									"    pm.response.to.have.status(400);",
									"});",
									"pm.test(\"Content-Type is present\", function () {",
									"    pm.response.to.have.header(\"Content-Type\");",
									"});",
									""
								],
								"type": "text/javascript"
							}
						}
					],
					"protocolProfileBehavior": {
						"disableBodyPruning": true
					},
					"request": {
						"method": "GET",
						"header": [],
						"body": {
							"mode": "raw",
							"raw": "{\n    \"page\": 6,\n    \"per_page\": 6,\n    \"total\": 12,\n    \"total_pages\": 2,\n    \"data\": [\n        {\n            \"id\": 7,\n            \"email\": \"michael.lawson@reqres.in\",\n            \"first_name\": \"Michael\",\n            \"last_name\": \"Lawson\",\n            \"avatar\": \"https://reqres.in/img/faces/7-image.jpg\"\n        },\n        {\n            \"id\": 8,\n            \"email\": \"lindsay.ferguson@reqres.in\",\n            \"first_name\": \"Lindsay\",\n            \"last_name\": \"Ferguson\",\n            \"avatar\": \"https://reqres.in/img/faces/8-image.jpg\"\n        },\n        {\n            \"id\": 9,\n            \"email\": \"tobias.funke@reqres.in\",\n            \"first_name\": \"Tobias\",\n            \"last_name\": \"Funke\",\n            \"avatar\": \"https://reqres.in/img/faces/9-image.jpg\"\n        },\n        {\n            \"id\": 10,\n            \"email\": \"byron.fields@reqres.in\",\n            \"first_name\": \"Byron\",\n            \"last_name\": \"Fields\",\n            \"avatar\": \"https://reqres.in/img/faces/10-image.jpg\"\n        },\n        {\n            \"id\": 11,\n            \"email\": \"george.edwards@reqres.in\",\n            \"first_name\": \"George\",\n            \"last_name\": \"Edwards\",\n            \"avatar\": \"https://reqres.in/img/faces/11-image.jpg\"\n        },\n        {\n            \"id\": 12,\n            \"email\": \"rachel.howell@reqres.in\",\n            \"first_name\": \"Rachel\",\n            \"last_name\": \"Howell\",\n            \"avatar\": \"https://reqres.in/img/faces/12-image.jpg\"\n        }\n    ]",
							"options": {
								"raw": {
									"language": "json"
								}
							}
						},
						"url": {
							"raw": "https://reqres.in/api/users?page=2444",
							"protocol": "https",
							"host": [
								"reqres",
								"in"
							],
							"path": [
								"api",
								"users"
							],
							"query": [
								{
									"key": "page",
									"value": "2444"
								}
							]
						}
					},
					"response": []
				},
				{
					"name": "Invalid Update User",
					"event": [
						{
							"listen": "test",
							"script": {
								"exec": [
									"pm.test(\"Status code is 404(Not Found)\",function() {",
									"    pm.response.to.have.status(404);",
									"});",
									"pm.test(\"Content-Type is present\", function () {",
									"    pm.response.to.have.header(\"Content-Type\");",
									"});",
									""
								],
								"type": "text/javascript"
							}
						}
					],
					"request": {
						"method": "PUT",
						"header": [],
						"body": {
							"mode": "raw",
							"raw": "{\n    \"name\": \"morpheus\",\n    \"job\": \"senior leader\"\n}",
							"options": {
								"raw": {
									"language": "json"
								}
							}
						},
						"url": {
							"raw": "https://reqres.in/api/u",
							"protocol": "https",
							"host": [
								"reqres",
								"in"
							],
							"path": [
								"api",
								"u"
							]
						}
					},
					"response": []
				},
				{
					"name": "Invalid View Detail Single User",
					"event": [
						{
							"listen": "test",
							"script": {
								"exec": [
									"pm.test(\"Content-Type is present\", function () {",
									"    pm.response.to.have.header(\"Content-Type\");",
									"});",
									"",
									"pm.test(\"Status code is 200\",function() {",
									"    pm.response.to.have.status(200);",
									"});",
									" ",
									"pm.test(\"Valid JSON response structure\", function () {",
									"  responseBody = pm.response.json();",
									"",
									"  pm.expect(responseBody).to.have.property(\"data\");",
									"  pm.expect(responseBody).to.have.property(\"support\");",
									"});",
									"pm.test(\"Body contains string\",() => {",
									"  pm.expect(pm.response.text()).to.include(\"id\");",
									"});",
									""
								],
								"type": "text/javascript"
							}
						}
					],
					"protocolProfileBehavior": {
						"disableBodyPruning": true
					},
					"request": {
						"method": "GET",
						"header": [],
						"body": {
							"mode": "raw",
							"raw": "{\n    \"data\": {\n        \"id\": 2,\n        \"email\": \"janet.weaver@reqres.in\",\n        \"first_name\": \"Janet\",\n        \"last_name\": \"Weaver\",\n        \"avatar\": \"https://reqres.in/img/faces/2-image.jpg\"\n    },\n    \"support\": {\n        \"url\": \"https://reqres.in/#support-heading\",\n        \"text\": \"To keep ReqRes free, contributions towards server costs are appreciated!\"\n    }\n}",
							"options": {
								"raw": {
									"language": "json"
								}
							}
						},
						"url": {
							"raw": "https://reqres.in/api/users/2",
							"protocol": "https",
							"host": [
								"reqres",
								"in"
							],
							"path": [
								"api",
								"users",
								"2"
							]
						}
					},
					"response": []
				},
				{
					"name": "Invalid Delete User",
					"event": [
						{
							"listen": "test",
							"script": {
								"exec": [
									"pm.test(\"Status code is 204(Delete User)\",function() {",
									"    pm.response.to.have.status(204);",
									"});"
								],
								"type": "text/javascript"
							}
						}
					],
					"request": {
						"method": "DELETE",
						"header": [],
						"url": {
							"raw": "https://reqres.in/api/users/2",
							"protocol": "https",
							"host": [
								"reqres",
								"in"
							],
							"path": [
								"api",
								"users",
								"2"
							]
						}
					},
					"response": []
				}
			]
		}
	]
}